Vignette_release
…
Vignette_release

library(grassland)
theme_set(ggthemes::theme_few())

Load community composition data (experimental and observational).

dat_community
#> $obs
#> # A tibble: 40,154 × 7
#>    site    year plot  species                  guild abund abund_type
#>    <chr>  <int> <chr> <chr>                    <chr> <dbl> <chr>     
#>  1 angelo  2002 17    Acmispon parviflorus     NAF      10 cover     
#>  2 angelo  2002 17    Acmispon wrangelianus    NAF       7 cover     
#>  3 angelo  2002 17    Aira caryophyllea        EAG       3 cover     
#>  4 angelo  2002 17    Briza minor              EAG       1 cover     
#>  5 angelo  2002 17    Bromus hordeaceus        EAG      21 cover     
#>  6 angelo  2002 17    Bromus tectorum          EAG       1 cover     
#>  7 angelo  2002 17    Castilleja attenuata     NAF       2 cover     
#>  8 angelo  2002 17    Cynosurus echinatus      EAG       1 cover     
#>  9 angelo  2002 17    Epilobium brachycarpum   NAF       7 cover     
#> 10 angelo  2002 17    Eschscholzia californica NPF       1 cover     
#> # ℹ 40,144 more rows
#> 
#> $exp
#> # A tibble: 26,900 × 8
#>    site   year plot  treat species            guild abund abund_type     
#>    <chr> <int> <chr> <chr> <chr>              <chr> <dbl> <chr>          
#>  1 jrgce  1998 1     ____  Avena fatua        EAG      14 point_intercept
#>  2 jrgce  1998 1     ____  Bromus hordeaceus  EAG       4 point_intercept
#>  3 jrgce  1998 1     ____  Erodium botrys     EAF       1 point_intercept
#>  4 jrgce  1998 1     ____  Festuca DUMMY      DUMMY     2 point_intercept
#>  5 jrgce  1998 1     ____  Festuca perennis   EAG      20 point_intercept
#>  6 jrgce  1998 1     ____  Geranium dissectum EAF       1 point_intercept
#>  7 jrgce  1998 10    ____  Avena barbata      EAG       9 point_intercept
#>  8 jrgce  1998 10    ____  Avena fatua        EAG      19 point_intercept
#>  9 jrgce  1998 10    ____  Bromus hordeaceus  EAG      12 point_intercept
#> 10 jrgce  1998 10    ____  Erodium botrys     EAF       3 point_intercept
#> # ℹ 26,890 more rows

dat_occ$gbif
#> Simple feature collection with 830870 features and 4 fields
#> Geometry type: POINT
#> Dimension:     XY
#> Bounding box:  xmin: -124.4038 ymin: 28.05833 xmax: -115.1637 ymax: 43.66736
#> Geodetic CRS:  WGS 84
#> # A tibble: 830,870 × 5
#>    queryName            consolidatedName key   dataset             geometry
#>  * <chr>                <chr>            <chr> <chr>            <POINT [°]>
#>  1 Acaena californica   Acaena californ… 3053… gbif      (-120.5765 34.771)
#>  2 Acaena californica   Acaena californ… 3053… gbif     (-120.5618 34.6106)
#>  3 Acaena californica   Acaena californ… 3053… gbif       (-120.626 34.912)
#>  4 Acaena californica   Acaena californ… 3053… gbif       (-120.628 34.911)
#>  5 Acaena californica   Acaena californ… 3053… gbif     (-122.4684 37.7501)
#>  6 Acaena californica   Acaena californ… 3053… gbif      (-120.6455 34.907)
#>  7 Acaena californica   Acaena californ… 3053… gbif      (-120.667 34.9033)
#>  8 Acaena californica   Acaena californ… 6992… gbif    (-119.7514 37.25027)
#>  9 Acaena pinnatifida … Acaena californ… 4029… gbif    (-121.7941 36.47433)
#> 10 Acaena pinnatifida … Acaena californ… 4029… gbif    (-121.7999 36.46997)
#> # ℹ 830,860 more rows
# dat_clim
dat_trait
#> # A tibble: 830,870 × 5
#>    key        species              tmp   ppt   vpd
#>    <chr>      <chr>              <dbl> <dbl> <dbl>
#>  1 3053425674 Acaena californica  14.1  433.  672.
#>  2 3053470119 Acaena californica  13.4  472.  769 
#>  3 3053446045 Acaena californica  13.2  520.  762.
#>  4 3053439695 Acaena californica  13.2  520.  762.
#>  5 3053467094 Acaena californica  12.9  749.  647.
#>  6 3053434607 Acaena californica  13.4  489   721.
#>  7 3053470930 Acaena californica  13.9  466.  665.
#>  8 699270279  Acaena californica  16.7  696. 2044.
#>  9 4029214328 Acaena californica  12.3  733.  762.
#> 10 4029024327 Acaena californica  12.3  733.  762.
#> # ℹ 830,860 more rows
…
