3 Taxonomy
…
Rename species.

path_community <- tidy_taxonomy_rename()
dat_community <- read_community(version = "final")

dat_community
#> $obs
#> # A tibble: 40,154 × 7
#>    site    year plot  species                  guild abund abund_type
#>    <chr>  <int> <chr> <chr>                    <chr> <dbl> <chr>     
#>  1 angelo  2002 17    Acmispon parviflorus     NAF      10 cover     
#>  2 angelo  2002 17    Acmispon wrangelianus    NAF       7 cover     
#>  3 angelo  2002 17    Aira caryophyllea        EAG       3 cover     
#>  4 angelo  2002 17    Briza minor              EAG       1 cover     
#>  5 angelo  2002 17    Bromus hordeaceus        EAG      21 cover     
#>  6 angelo  2002 17    Bromus tectorum          EAG       1 cover     
#>  7 angelo  2002 17    Castilleja attenuata     NAF       2 cover     
#>  8 angelo  2002 17    Cynosurus echinatus      EAG       1 cover     
#>  9 angelo  2002 17    Epilobium brachycarpum   NAF       7 cover     
#> 10 angelo  2002 17    Eschscholzia californica NPF       1 cover     
#> # ℹ 40,144 more rows
#> 
#> $exp
#> # A tibble: 26,900 × 8
#>    site   year plot  treat species            guild abund abund_type     
#>    <chr> <int> <chr> <chr> <chr>              <chr> <dbl> <chr>          
#>  1 jrgce  1998 1     ____  Avena fatua        EAG      14 point_intercept
#>  2 jrgce  1998 1     ____  Bromus hordeaceus  EAG       4 point_intercept
#>  3 jrgce  1998 1     ____  Erodium botrys     EAF       1 point_intercept
#>  4 jrgce  1998 1     ____  Festuca DUMMY      DUMMY     2 point_intercept
#>  5 jrgce  1998 1     ____  Festuca perennis   EAG      20 point_intercept
#>  6 jrgce  1998 1     ____  Geranium dissectum EAF       1 point_intercept
#>  7 jrgce  1998 10    ____  Avena barbata      EAG       9 point_intercept
#>  8 jrgce  1998 10    ____  Avena fatua        EAG      19 point_intercept
#>  9 jrgce  1998 10    ____  Bromus hordeaceus  EAG      12 point_intercept
#> 10 jrgce  1998 10    ____  Erodium botrys     EAF       3 point_intercept
#> # ℹ 26,890 more rows
…
