4 Species niche
…
spp_tbl <- tidy_taxonomy_consolidate(dat_community = dat_community)
path_occ <- down_biogeography(species_table = spp_tbl) # needs parallel computation
dat_occ <- read_biogeography(path_occ = path_occ)
gg_biogeography <- plot_biogeography(dat_occ)
gg_biogeography

dat_occ
#> $gbif
#> Simple feature collection with 830870 features and 4 fields
#> Geometry type: POINT
#> Dimension:     XY
#> Bounding box:  xmin: -124.4038 ymin: 28.05833 xmax: -115.1637 ymax: 43.66736
#> Geodetic CRS:  WGS 84
#> # A tibble: 830,870 × 5
#>    queryName            consolidatedName key   dataset             geometry
#>  * <chr>                <chr>            <chr> <chr>            <POINT [°]>
#>  1 Acaena californica   Acaena californ… 3053… gbif      (-120.5765 34.771)
#>  2 Acaena californica   Acaena californ… 3053… gbif     (-120.5618 34.6106)
#>  3 Acaena californica   Acaena californ… 3053… gbif       (-120.626 34.912)
#>  4 Acaena californica   Acaena californ… 3053… gbif       (-120.628 34.911)
#>  5 Acaena californica   Acaena californ… 3053… gbif     (-122.4684 37.7501)
#>  6 Acaena californica   Acaena californ… 3053… gbif      (-120.6455 34.907)
#>  7 Acaena californica   Acaena californ… 3053… gbif      (-120.667 34.9033)
#>  8 Acaena californica   Acaena californ… 6992… gbif    (-119.7514 37.25027)
#>  9 Acaena pinnatifida … Acaena californ… 4029… gbif    (-121.7941 36.47433)
#> 10 Acaena pinnatifida … Acaena californ… 4029… gbif    (-121.7999 36.46997)
#> # ℹ 830,860 more rows
#> 
#> $cch
#> Simple feature collection with 230903 features and 4 fields
#> Geometry type: POINT
#> Dimension:     XY
#> Bounding box:  xmin: -124.4038 ymin: 28.0946 xmax: -115.1667 ymax: 43.66736
#> Geodetic CRS:  WGS 84
#> # A tibble: 230,903 × 5
#>    queryName            consolidatedName key   dataset             geometry
#>  * <chr>                <chr>            <chr> <chr>            <POINT [°]>
#>  1 Erodium moschatum    Erodium moschat… 1249… cch      (-115.5931 28.3065)
#>  2 Calandrinia menzies… Calandrinia men… 1971… cch     (-115.2236 28.31614)
#>  3 Descurainia pinnata  Descurainia pin… 2994… cch      (-115.2113 28.3428)
#>  4 Erodium cicutarium   Erodium cicutar… 3587… cch      (-115.2113 28.3428)
#>  5 Logfia filaginoides  Logfia filagino… 1928… cch     (-115.2305 28.34848)
#>  6 Uropappus lindleyi   Uropappus lindl… 1933… cch        (-115.2167 28.35)
#>  7 Lupinus formosus     Lupinus formosus 1957… cch     (-115.7429 31.21002)
#>  8 Lupinus formosus     Lupinus formosus 3815… cch     (-115.7429 31.21002)
#>  9 Cercocarpus betuloi… Cercocarpus bet… 1986… cch     (-115.7663 31.22997)
#> 10 Selaginella bigelov… Selaginella big… 1901… cch     (-115.7686 31.23274)
#> # ℹ 230,893 more rows
#> 
#> $inat
#> Simple feature collection with 552033 features and 4 fields
#> Geometry type: POINT
#> Dimension:     XY
#> Bounding box:  xmin: -124.3689 ymin: 28.09416 xmax: -115.1637 ymax: 43.66259
#> Geodetic CRS:  WGS 84
#> # A tibble: 552,033 × 5
#>    queryName            consolidatedName key   dataset             geometry
#>  * <chr>                <chr>            <chr> <chr>            <POINT [°]>
#>  1 Acaena pinnatifida … Acaena californ… 4029… inat    (-121.7941 36.47433)
#>  2 Acaena pinnatifida … Acaena californ… 4029… inat    (-121.7999 36.46997)
#>  3 Acaena pinnatifida … Acaena californ… 4039… inat    (-121.7664 36.64675)
#>  4 Acaena pinnatifida … Acaena californ… 4075… inat    (-122.4144 37.68163)
#>  5 Acaena pinnatifida … Acaena californ… 4080… inat    (-122.4098 37.71766)
#>  6 Acaena pinnatifida … Acaena californ… 4067… inat     (-122.451 37.70244)
#>  7 Acaena pinnatifida … Acaena californ… 4075… inat     (-121.797 36.64895)
#>  8 Acaena pinnatifida … Acaena californ… 4127… inat    (-121.7467 36.65522)
#>  9 Acaena pinnatifida … Acaena californ… 4112… inat    (-122.4484 37.75363)
#> 10 Acaena pinnatifida … Acaena californ… 4111… inat    (-122.4458 37.74912)
#> # ℹ 552,023 more rows
…
